…
  # make sure new columns are the right data type
  names_transform = list(year = as.integer),
  values_transform = list(value = as.character) 
) %>% print()
```

```
## # A tibble: 30 x 4
##    customer_id category    year value    
##          <int> <chr>      <int> <chr>    
##  1           1 itemsprice  2018 2 (3.91) 
##  2           1 itemsprice  2019 8 (4.72) 
##  3           1 itemsprice  2020 10 (5.59)
##  4           1 totalprice  2018 7.82     
##  5           1 totalprice  2019 37.76    
##  6           1 totalprice  2020 55.9     
##  7           2 itemsprice  2018 1 (3.91) 
##  8           2 itemsprice  2019 6 (4.72) 
##  9           2 itemsprice  2020 1 (5.59) 
## 10           2 totalprice  2018 3.91     
## # … with 20 more rows
```
…
